SocEpi Vignette
…
The st_rate function calculates direct standardized rates by deprivation or socioeconomic status (SES). Overall rates across all deprivation categories or SES are also provided. The function provides multiple built-in standard populations, but user supplied weights can also be provided. Sub-populations (gender, ethnicity) can be selected using the groups argument.

# Standardized rates for all people
st_rate(d, bad, pop, quintile, age, ethnicity == "all")
#> # A tibble: 48 x 5
#>    ses   age     rate CI_low CI_high
#>    <fct> <chr>  <dbl>  <dbl>   <dbl>
#>  1 1     0-14    2.39   2.17    2.62
#>  2 1     15-29   7.13   6.72    7.55
#>  3 1     30-44  15.7   15.2    16.3 
#>  4 1     45-59  34.3   33.6    35.1 
#>  5 1     60-74  57.5   56.3    58.6 
#>  6 1     75    116.   114.    119.  
#>  7 2     0-14    3.05   2.78    3.32
#>  8 2     15-29   8.73   8.31    9.16
#>  9 2     30-44  24.5   23.9    25.2 
#> 10 2     45-59  53.2   52.2    54.1 
#> # ... with 38 more rows

# Standardized rates for Scottish for ages 15-29 and 30-44 with 99% CI
st_rate(d, bad, pop, quintile, age, ethnicity == "Scot", 
        age_group=c("15-29", "30-44"), CI=99)
#> # A tibble: 24 x 5
#>    ses   age    rate CI_low CI_high
#>    <fct> <chr> <dbl>  <dbl>   <dbl>
#>  1 1     15-29  7.42   6.80    8.05
#>  2 1     30-44 16.4   15.6    17.3 
#>  3 2     15-29  9.43   8.77   10.1 
#>  4 2     30-44 25.7   24.7    26.8 
#>  5 3     15-29 11.6   11.0    12.3 
#>  6 3     30-44 34.2   33.0    35.3 
#>  7 4     15-29 12.8   12.1    13.5 
#>  8 4     30-44 44.2   42.9    45.4 
#>  9 5     15-29 17.6   16.8    18.4 
#> 10 5     30-44 70.9   69.3    72.6 
#> # ... with 14 more rows
…
